digraph g {
__start0 [label="" shape="none"];

	s0 [shape="circle" label="0"];
	s1 [shape="circle" label="1"];
	s2 [shape="circle" label="2"];
	s3 [shape="circle" label="3"];
	s4 [shape="circle" label="4"];
	s5 [shape="circle" label="5"];
	s6 [shape="circle" label="6"];
	s7 [shape="circle" label="7"];
	s0 -> s1 [label="REGISTER_A / 204"];
	s0 -> s2 [label="REGISTER_B / 204"];
	s0 -> s3 [label="REGISTER_C / 204"];
	s0 -> s0 [label="MESSAGE_TO_A / 404"];
	s0 -> s0 [label="MESSAGE_TO_B / 404"];
	s0 -> s0 [label="MESSAGE_TO_C / 404"];
	s0 -> s0 [label="DELETE_A / 204"];
	s0 -> s0 [label="DELETE_B / 204"];
	s0 -> s0 [label="DELETE_C / 204"];
	s1 -> s1 [label="REGISTER_A / 204"];
	s1 -> s4 [label="REGISTER_B / 204"];
	s1 -> s5 [label="REGISTER_C / 204"];
	s1 -> s1 [label="MESSAGE_TO_A / 200"];
	s1 -> s1 [label="MESSAGE_TO_B / 404"];
	s1 -> s1 [label="MESSAGE_TO_C / 404"];
	s1 -> s0 [label="DELETE_A / 204"];
	s1 -> s1 [label="DELETE_B / 204"];
	s1 -> s1 [label="DELETE_C / 204"];
	s2 -> s4 [label="REGISTER_A / 204"];
	s2 -> s2 [label="REGISTER_B / 204"];
	s2 -> s6 [label="REGISTER_C / 204"];
	s2 -> s2 [label="MESSAGE_TO_A / 404"];
	s2 -> s2 [label="MESSAGE_TO_B / 200"];
	s2 -> s2 [label="MESSAGE_TO_C / 404"];
	s2 -> s2 [label="DELETE_A / 204"];
	s2 -> s0 [label="DELETE_B / 204"];
	s2 -> s2 [label="DELETE_C / 204"];
	s3 -> s5 [label="REGISTER_A / 204"];
	s3 -> s6 [label="REGISTER_B / 204"];
	s3 -> s3 [label="REGISTER_C / 204"];
	s3 -> s3 [label="MESSAGE_TO_A / 404"];
	s3 -> s3 [label="MESSAGE_TO_B / 404"];
	s3 -> s3 [label="MESSAGE_TO_C / 200"];
	s3 -> s3 [label="DELETE_A / 204"];
	s3 -> s3 [label="DELETE_B / 204"];
	s3 -> s0 [label="DELETE_C / 204"];
	s4 -> s4 [label="REGISTER_A / 204"];
	s4 -> s4 [label="REGISTER_B / 204"];
	s4 -> s7 [label="REGISTER_C / 204"];
	s4 -> s4 [label="MESSAGE_TO_A / 200"];
	s4 -> s4 [label="MESSAGE_TO_B / 200"];
	s4 -> s4 [label="MESSAGE_TO_C / 404"];
	s4 -> s2 [label="DELETE_A / 204"];
	s4 -> s1 [label="DELETE_B / 204"];
	s4 -> s4 [label="DELETE_C / 204"];
	s5 -> s5 [label="REGISTER_A / 204"];
	s5 -> s7 [label="REGISTER_B / 204"];
	s5 -> s5 [label="REGISTER_C / 204"];
	s5 -> s5 [label="MESSAGE_TO_A / 200"];
	s5 -> s5 [label="MESSAGE_TO_B / 404"];
	s5 -> s5 [label="MESSAGE_TO_C / 200"];
	s5 -> s3 [label="DELETE_A / 204"];
	s5 -> s5 [label="DELETE_B / 204"];
	s5 -> s1 [label="DELETE_C / 204"];
	s6 -> s7 [label="REGISTER_A / 204"];
	s6 -> s6 [label="REGISTER_B / 204"];
	s6 -> s6 [label="REGISTER_C / 204"];
	s6 -> s6 [label="MESSAGE_TO_A / 404"];
	s6 -> s6 [label="MESSAGE_TO_B / 200"];
	s6 -> s6 [label="MESSAGE_TO_C / 200"];
	s6 -> s6 [label="DELETE_A / 204"];
	s6 -> s3 [label="DELETE_B / 204"];
	s6 -> s2 [label="DELETE_C / 204"];
	s7 -> s7 [label="REGISTER_A / 204"];
	s7 -> s7 [label="REGISTER_B / 204"];
	s7 -> s7 [label="REGISTER_C / 204"];
	s7 -> s7 [label="MESSAGE_TO_A / 200"];
	s7 -> s7 [label="MESSAGE_TO_B / 200"];
	s7 -> s7 [label="MESSAGE_TO_C / 200"];
	s7 -> s6 [label="DELETE_A / 204"];
	s7 -> s5 [label="DELETE_B / 204"];
	s7 -> s4 [label="DELETE_C / 204"];

__start0 -> s0;
}
