digraph g {
__start0 [label="" shape="none"];
	graph [rankdir = LR]

	s0 [shape="circle" label="0"];
	s1 [shape="circle" label="1"];
	s2 [shape="circle" label="2"];
	s3 [shape="circle" label="3"];
	s4 [shape="circle" label="4"];
	s5 [shape="circle" label="5"];
	s6 [shape="circle" label="6"];
	s7 [shape="circle" label="7"];
	s8 [shape="circle" label="8"];
	s9 [shape="circle" label="9"];
	s0 -> s1 [label="REQUEST_VERIFICATION_CODE / 200"];
	s0 -> s2 [label="CONFIRM_VERIFICATION_CODE / 403"];
	s0 -> s3 [label="REGISTER_KEYS / 401"];
	s0 -> s3 [label="RETRIEVE_CONTACTS / 401"];
	s0 -> s0 [label="RETRIEVE_PREKEY_BUNDLE / DONE"];
	s1 -> s1 [label="REQUEST_VERIFICATION_CODE / 200"];
	s1 -> s4 [label="CONFIRM_VERIFICATION_CODE / 204"];
	s1 -> s5 [label="REGISTER_KEYS / 401"];
	s1 -> s5 [label="RETRIEVE_CONTACTS / 401"];
	s1 -> s1 [label="RETRIEVE_PREKEY_BUNDLE / 200"];
	s2 -> s1 [label="REQUEST_VERIFICATION_CODE / 200"];
	s2 -> s2 [label="CONFIRM_VERIFICATION_CODE / 403"];
	s2 -> s3 [label="REGISTER_KEYS / 401"];
	s2 -> s3 [label="RETRIEVE_CONTACTS / 401"];
	s2 -> s2 [label="RETRIEVE_PREKEY_BUNDLE / 403"];
	s3 -> s1 [label="REQUEST_VERIFICATION_CODE / 200"];
	s3 -> s2 [label="CONFIRM_VERIFICATION_CODE / 403"];
	s3 -> s3 [label="REGISTER_KEYS / 401"];
	s3 -> s3 [label="RETRIEVE_CONTACTS / 401"];
	s3 -> s3 [label="RETRIEVE_PREKEY_BUNDLE / 401"];
	s4 -> s6 [label="REQUEST_VERIFICATION_CODE / 200"];
	s4 -> s7 [label="CONFIRM_VERIFICATION_CODE / 403"];
	s4 -> s4 [label="REGISTER_KEYS / 204"];
	s4 -> s8 [label="RETRIEVE_CONTACTS / 200"];
	s4 -> s4 [label="RETRIEVE_PREKEY_BUNDLE / 204"];
	s5 -> s1 [label="REQUEST_VERIFICATION_CODE / 200"];
	s5 -> s4 [label="CONFIRM_VERIFICATION_CODE / 204"];
	s5 -> s5 [label="REGISTER_KEYS / 401"];
	s5 -> s5 [label="RETRIEVE_CONTACTS / 401"];
	s5 -> s5 [label="RETRIEVE_PREKEY_BUNDLE / 401"];
	s6 -> s6 [label="REQUEST_VERIFICATION_CODE / 200"];
	s6 -> s4 [label="CONFIRM_VERIFICATION_CODE / 204"];
	s6 -> s9 [label="REGISTER_KEYS / 204"];
	s6 -> s6 [label="RETRIEVE_CONTACTS / 200"];
	s6 -> s6 [label="RETRIEVE_PREKEY_BUNDLE / 200"];
	s7 -> s6 [label="REQUEST_VERIFICATION_CODE / 200"];
	s7 -> s7 [label="CONFIRM_VERIFICATION_CODE / 403"];
	s7 -> s4 [label="REGISTER_KEYS / 204"];
	s7 -> s8 [label="RETRIEVE_CONTACTS / 200"];
	s7 -> s7 [label="RETRIEVE_PREKEY_BUNDLE / 403"];
	s8 -> s6 [label="REQUEST_VERIFICATION_CODE / 200"];
	s8 -> s7 [label="CONFIRM_VERIFICATION_CODE / 403"];
	s8 -> s4 [label="REGISTER_KEYS / 204"];
	s8 -> s8 [label="RETRIEVE_CONTACTS / 200"];
	s8 -> s8 [label="RETRIEVE_PREKEY_BUNDLE / 200"];
	s9 -> s6 [label="REQUEST_VERIFICATION_CODE / 200"];
	s9 -> s4 [label="CONFIRM_VERIFICATION_CODE / 204"];
	s9 -> s9 [label="REGISTER_KEYS / 204"];
	s9 -> s6 [label="RETRIEVE_CONTACTS / 200"];
	s9 -> s9 [label="RETRIEVE_PREKEY_BUNDLE / 204"];

__start0 -> s0;
}
