digraph g {
__start0 [label="" shape="none"];

	s0 [shape="circle" label="0"];
	s1 [shape="circle" label="1"];
	s2 [shape="circle" label="2"];
	s3 [shape="circle" label="3"];
	s0 -> s1 [label="REGISTER_A / 204"];
	s0 -> s2 [label="REGISTER_B / 204"];
	s0 -> s0 [label="MESSAGE_TO_A / 404"];
	s0 -> s0 [label="MESSAGE_TO_B / 404"];
	s0 -> s0 [label="DELETE_A / 204"];
	s0 -> s0 [label="DELETE_B / 204"];
	s1 -> s1 [label="REGISTER_A / 204"];
	s1 -> s3 [label="REGISTER_B / 204"];
	s1 -> s1 [label="MESSAGE_TO_A / 200"];
	s1 -> s1 [label="MESSAGE_TO_B / 404"];
	s1 -> s0 [label="DELETE_A / 204"];
	s1 -> s1 [label="DELETE_B / 204"];
	s2 -> s3 [label="REGISTER_A / 204"];
	s2 -> s2 [label="REGISTER_B / 204"];
	s2 -> s2 [label="MESSAGE_TO_A / 404"];
	s2 -> s2 [label="MESSAGE_TO_B / 200"];
	s2 -> s2 [label="DELETE_A / 204"];
	s2 -> s0 [label="DELETE_B / 204"];
	s3 -> s3 [label="REGISTER_A / 204"];
	s3 -> s3 [label="REGISTER_B / 204"];
	s3 -> s3 [label="MESSAGE_TO_A / 200"];
	s3 -> s3 [label="MESSAGE_TO_B / 200"];
	s3 -> s2 [label="DELETE_A / 204"];
	s3 -> s1 [label="DELETE_B / 204"];

__start0 -> s0;
}
